"MutationType","WT","rnh201","top1","rnh201_top1"
"1:Ins:C:0",0,0,1,1
"1:Ins:C:1",1,0,5,4
"1:Ins:C:2",0,0,2,3
"1:Ins:C:3",0,0,1,2
"1:Ins:C:4",0,0,0,0
"1:Ins:C:5",0,0,0,0
"1:Ins:T:0",2,0,16,4
"1:Ins:T:1",3,1,11,6
"1:Ins:T:2",1,0,4,3
"1:Ins:T:3",1,0,2,3
"1:Ins:T:4",0,0,1,0
"1:Ins:T:5",0,0,0,0
"2:Del:R:0",6,2,3,5
"2:Del:R:1",52,66,3,6
"2:Del:R:2",10,20,5,7
"2:Del:R:3",12,11,7,6
"2:Del:R:4",0,0,0,0
"2:Del:R:5",0,0,0,0
"5:Del:R:0",0,0,1,1
"5:Del:R:1",0,0,1,0
"5:Del:R:2",0,0,0,0
"5:Del:R:3",0,0,0,0
"5:Del:R:4",0,0,0,0
"5:Del:R:5",0,0,0,0
"4:Ins:R:1",2,0,1,0
"4:Ins:R:2",0,0,0,0
"4:Ins:R:3",0,0,0,0
"4:Ins:R:4",0,0,0,0
"4:Ins:R:5",0,0,0,0
"5:Ins:R:0",3,0,2,2
"5:Ins:R:1",3,0,12,17
"5:Ins:R:2",0,0,0,0
"5:Ins:R:3",0,0,0,0
"5:Ins:R:4",0,0,0,0
"5:Ins:R:5",0,0,0,0
"2:Del:M:1",6,4,1,4
"5:Del:M:1",1,0,1,1
"5:Del:M:2",1,0,1,1
"5:Del:M:3",0,0,3,2
"5:Del:M:4",0,0,0,1
"5:Del:M:5",3,0,3,2
